<svg width="14" height="27" viewBox="0 0 14 27" fill="none" xmlns="http://www.w3.org/2000/svg">
<path d="M13.6284 14.1396L2.19393 25.8444C1.6922 26.3569 0.879304 26.3569 0.376302 25.8444C-0.125434 25.3319 -0.125434 24.4995 0.376302 23.9871L10.9038 13.211L0.377568 2.43488C-0.124167 1.92241 -0.124167 1.09002 0.377568 0.576249C0.879304 0.0637764 1.69346 0.0637764 2.1952 0.576249L13.6296 12.281C14.1237 12.7881 14.1237 13.6336 13.6284 14.1396Z" fill="#2D9E1A"/>
</svg>
