<svg width="39" height="47" viewBox="0 0 39 47" fill="none" xmlns="http://www.w3.org/2000/svg">
<path d="M38.0044 13.6548C38.5113 13.6548 38.9224 13.2438 38.9224 12.7368V2.75391C38.9224 1.2354 37.687 0 36.1685 0H2.75439C1.23589 0 0.000488281 1.2354 0.000488281 2.75391V44.2461C0.000488281 45.7646 1.23589 47 2.75439 47H36.1685C37.687 47 38.9224 45.7646 38.9224 44.2461V37.4832C38.9224 36.9762 38.5113 36.5653 38.0044 36.5653C37.4975 36.5653 37.0864 36.9762 37.0864 37.4832V44.2461C37.0864 44.7523 36.6746 45.1641 36.1685 45.1641H2.75439C2.24823 45.1641 1.83643 44.7523 1.83643 44.2461V2.75391C1.83643 2.24774 2.24823 1.83594 2.75439 1.83594H36.1685C36.6746 1.83594 37.0864 2.24774 37.0864 2.75391V12.7368C37.0864 13.2438 37.4975 13.6548 38.0044 13.6548Z" fill="#F9F9F9"/>
</svg>
