<svg width="11" height="8" viewBox="0 0 11 8" fill="none" xmlns="http://www.w3.org/2000/svg">
<path d="M10.3309 2.53125C10.4844 2.37779 10.4844 2.12612 10.3309 1.97266L9.31194 0.959821C9.15848 0.806361 8.91295 0.806361 8.75949 0.959821L5.5 4.21931L2.24051 0.959821C2.08705 0.806361 1.84152 0.806361 1.68806 0.959821L0.669085 1.97266C0.515625 2.12612 0.515625 2.37779 0.669085 2.53125L5.22377 7.0798C5.37723 7.23326 5.62277 7.23326 5.77623 7.0798L10.3309 2.53125Z" fill="#2D9E1A"/>
</svg>
